<svg xmlns="http://www.w3.org/2000/svg" viewBox="-16717 -14081 1.5 1.5">
  <defs>
    <style>
      .cls-1 {
        fill: none;
      }

      .cls-2, .cls-3 {
        fill: #02a8f3;
      }

      .cls-2 {
        opacity: 0.5;
      }
    </style>
  </defs>
  <g id="ic_bookmark_blue_24px" transform="translate(-2280 -6408)">
    <rect id="Rectangle_795" data-name="Rectangle 795" class="cls-1" width="1.5" height="1.5" transform="translate(-14437 -7673)"/>
    <g id="Group_1034" data-name="Group 1034" transform="translate(-14436.75 -7673)">
      <path id="Path_1138" data-name="Path 1138" class="cls-2" d="M96.77,106.146l-.483.175v-1.145h.483Z" transform="translate(-96.239 -104.868)"/>
      <path id="Path_1139" data-name="Path 1139" class="cls-3" d="M80.388,90.469a.049.049,0,0,1-.027-.008.046.046,0,0,1-.021-.038V89.277a.047.047,0,0,1,.048-.047h.483a.047.047,0,0,1,.048.047v.97a.047.047,0,0,1-.031.044l-.483.175A.05.05,0,0,1,80.388,90.469Zm.048-1.145v1.031l.387-.14v-.891Z" transform="translate(-80.34 -88.969)"/>
      <path id="Path_1140" data-name="Path 1140" class="cls-3" d="M240.6,90.469a.049.049,0,0,1-.017,0l-.483-.175a.047.047,0,0,1-.031-.044v-.97a.047.047,0,0,1,.048-.047h.223a.047.047,0,1,1,0,.093h-.175v.891l.387.14v-.806a.048.048,0,0,1,.1,0v.874a.046.046,0,0,1-.021.038A.049.049,0,0,1,240.6,90.469Z" transform="translate(-239.589 -88.969)"/>
      <path id="Path_1141" data-name="Path 1141" class="cls-3" d="M81.354.353a.047.047,0,0,1-.048-.047V.137a.044.044,0,0,0-.045-.043h-.78a.044.044,0,0,0-.045.043V.306a.048.048,0,0,1-.1,0V.137A.139.139,0,0,1,80.481,0h.78A.139.139,0,0,1,81.4.137V.306A.047.047,0,0,1,81.354.353Z" transform="translate(-80.34)"/>
    </g>
  </g>
</svg>
